MBNMAtime for time-course Model-Based (Network) Meta-Analysis
…
Inspecting the data

Before embarking on an analysis, the first step is to have a look at the raw data. Two features (network connectivity and time-course relationship) are particularly important for MBNMA. To investigate these we must first get our dataset into the right format for the package. We can do this using mb.network(). This requires specifying the desired treatment to use for the network reference treatment, though one will automatically be specified if not given.

# Using the pain dataset
network.pain <- mb.network(osteopain, reference = "Pl_0")
#> Studies reporting change from baseline automatically identified from the data
print(network.pain)
#> description :
#> [1] "Network"
#> 
#> data.ab :
#> # A tibble: 417 x 10
#> # Groups:   studyID, time [116]
#>    studyID    time     y     se treatment   arm treatname   fupcount  fups  narm
#>    <fct>     <dbl> <dbl>  <dbl>     <dbl> <int> <fct>          <int> <int> <int>
#>  1 Baerwald~     0  6.55 0.0861         1     1 Placebo_0          1     4     3
#>  2 Baerwald~     0  6.40 0.127         15     2 Naproxen_1~        1     4     3
#>  3 Baerwald~     0  6.62 0.0900        16     3 Naproxcino~        1     4     3
#>  4 Baerwald~     2  5.40 0.0932         1     1 Placebo_0          2     4     3
#>  5 Baerwald~     2  4.03 0.133         15     2 Naproxen_1~        2     4     3
#>  6 Baerwald~     2  4.43 0.0926        16     3 Naproxcino~        2     4     3
#>  7 Baerwald~     6  4.97 0.0997         1     1 Placebo_0          3     4     3
#>  8 Baerwald~     6  3.72 0.139         15     2 Naproxen_1~        3     4     3
#>  9 Baerwald~     6  4.08 0.0965        16     3 Naproxcino~        3     4     3
#> 10 Baerwald~    13  4.75 0.109          1     1 Placebo_0          4     4     3
#> # ... with 407 more rows
…
#> # A tibble: 58 x 3
#>    treatment parameter sucra
#>    <fct>     <chr>     <dbl>
#>  1 Pl_0      auc        2.53
#>  2 Pl_0      d.2       20.8 
#>  3 Ce_100    auc        7.19
#>  4 Ce_100    d.2       12.1 
#>  5 Ce_200    auc       15.5 
#>  6 Ce_200    d.2       13.4 
#>  7 Ce_400    auc       16.3 
#>  8 Ce_400    d.2       11.5 
#>  9 Du_90     auc       11.9 
#> 10 Du_90     d.2       20.8 
#> # ... with 48 more rows
…
