Outputs: Relative effects, forest plots and rankings
…
#> # A tibble: 29 × 3
#>    treatment parameter  sucra
#>    <fct>     <chr>      <dbl>
#>  1 Pl_0      auc       0.0953
#>  2 Ce_100    auc       0.295 
#>  3 Ce_200    auc       0.559 
#>  4 Ce_400    auc       0.638 
#>  5 Du_90     auc       0.482 
#>  6 Et_10     auc       0.123 
#>  7 Et_30     auc       0.769 
#>  8 Et_5      auc       0.214 
#>  9 Et_60     auc       0.904 
#> 10 Et_90     auc       0.889 
#> # ℹ 19 more rows
…
